Lab1/NewFile4.csv

CH1,CH2,Start,Increment,
Volt,Volt,-4.90000e-04,5.00000e-06
-5.12e-01,-1.28e+00,
-5.20e-01,-1.20e+00,
-5.20e-01,-1.20e+00,
-5.12e-01,-1.28e+00,
-5.12e-01,-1.28e+00,
-5.20e-01,-1.20e+00,
-5.12e-01,-1.28e+00,
-5.20e-01,-1.20e+00,
-5.12e-01,-1.28e+00,
-5.20e-01,-1.20e+00,
-5.12e-01,-1.28e+00,
-5.20e-01,-1.20e+00,
-5.12e-01,-1.28e+00,
-5.20e-01,-1.20e+00,
-5.12e-01,-1.28e+00,
-5.20e-01,-1.20e+00,
-5.12e-01,-1.28e+00,
-5.20e-01,-1.20e+00,
-5.20e-01,-1.28e+00,
-5.12e-01,-1.20e+00,
-5.12e-01,-1.28e+00,
-5.20e-01,-1.20e+00,
-5.12e-01,-1.28e+00,
-5.20e-01,-1.20e+00,
-5.12e-01,-1.20e+00,
-5.20e-01,-1.28e+00,
-5.12e-01,-1.28e+00,
-5.20e-01,-1.20e+00,
-5.12e-01,-1.28e+00,
-5.20e-01,-1.20e+00,
-5.12e-01,-1.28e+00,
-5.20e-01,-1.20e+00,
-5.12e-01,-1.20e+00,
-5.20e-01,-1.28e+00,
-5.12e-01,-1.20e+00,
-5.20e-01,-1.28e+00,
-5.12e-01,-1.28e+00,
-5.20e-01,-1.20e+00,
-5.12e-01,-1.28e+00,
-5.20e-01,-1.20e+00,
-4.96e-01,-1.28e+00,
-5.20e-01,-1.20e+00,
-5.20e-01,-1.28e+00,
-4.96e-01,-1.20e+00,
-4.96e-01,-1.28e+00,
-5.20e-01,-1.20e+00,
-5.20e-01,-1.28e+00,
-4.96e-01,-1.20e+00,
-5.20e-01,-1.20e+00,
-4.96e-01,-1.28e+00,
-5.20e-01,-1.28e+00,
-4.96e-01,-1.20e+00,
-5.20e-01,-1.20e+00,
-4.96e-01,-1.28e+00,
-5.04e-01,-1.28e+00,
-5.20e-01,-1.20e+00,
-5.12e-01,-1.28e+00,
-4.96e-01,-1.20e+00,
-5.12e-01,-1.28e+00,
-4.96e-01,-1.20e+00,
-4.96e-01,-1.28e+00,
-5.20e-01,-1.20e+00,
-5.04e-01,-1.28e+00,
-5.20e-01,-1.20e+00,
-4.96e-01,-1.20e+00,
-5.20e-01,-1.28e+00,
-5.20e-01,-1.28e+00,
-4.96e-01,-1.20e+00,
-5.20e-01,-1.20e+00,
-4.96e-01,-1.28e+00,
-5.04e-01,-1.20e+00,
-5.20e-01,-1.28e+00,
-4.96e-01,-1.20e+00,
-5.20e-01,-1.28e+00,
-4.96e-01,-1.28e+00,
-5.20e-01,-1.20e+00,
-5.20e-01,-1.20e+00,
-4.96e-01,-1.28e+00,
-4.96e-01,-1.28e+00,
-5.20e-01,-1.20e+00,
-4.96e-01,-1.28e+00,
-5.20e-01,-1.20e+00,
-5.12e-01,-1.20e+00,
-5.20e-01,-1.28e+00,
-5.12e-01,-1.28e+00,
-5.20e-01,-1.20e+00,
-5.12e-01,-1.20e+00,
-5.20e-01,-1.28e+00,
-5.12e-01,-1.28e+00,
-5.20e-01,-1.20e+00,
-5.12e-01,-1.20e+00,
-5.20e-01,-1.28e+00,
-5.12e-01,-1.20e+00,
-5.20e-01,-1.28e+00,
-5.12e-01,-1.28e+00,
-5.20e-01,-1.20e+00,
-5.12e-01,-1.20e+00,
-5.20e-01,-1.28e+00,
5.04e-01,-1.20e+00,
5.20e-01,-1.28e+00,
5.12e-01,-1.20e+00,
5.28e-01,-1.28e+00,
5.28e-01,-1.20e+00,
5.20e-01,-1.28e+00,
5.20e-01,-1.28e+00,
5.28e-01,-1.20e+00,
5.20e-01,-1.20e+00,
5.28e-01,-1.28e+00,
5.28e-01,-1.24e+00,
5.20e-01,-1.20e+00,
5.20e-01,-1.20e+00,
5.28e-01,-1.24e+00,
5.20e-01,-1.20e+00,
5.28e-01,-1.28e+00,
5.20e-01,-1.20e+00,
5.28e-01,-1.28e+00,
5.20e-01,-1.20e+00,
5.28e-01,-1.28e+00,
5.28e-01,-1.28e+00,
5.12e-01,-1.20e+00,
5.12e-01,-1.28e+00,
5.28e-01,-1.20e+00,
5.12e-01,-1.28e+00,
5.28e-01,-1.24e+00,
5.28e-01,-1.20e+00,
5.12e-01,-1.28e+00,
5.12e-01,-1.28e+00,
5.28e-01,-1.20e+00,
5.12e-01,-1.28e+00,
5.28e-01,-1.20e+00,
5.28e-01,-1.28e+00,
5.12e-01,-1.20e+00,
5.12e-01,-1.20e+00,
5.28e-01,-1.24e+00,
5.28e-01,-1.20e+00,
5.12e-01,-1.28e+00,
5.28e-01,-1.24e+00,
5.12e-01,-1.20e+00,
5.12e-01,-1.24e+00,
5.28e-01,-1.20e+00,
5.12e-01,-1.24e+00,
5.28e-01,-1.16e+00,
5.12e-01,-1.24e+00,
5.28e-01,-1.16e+00,
5.12e-01,-1.16e+00,
5.28e-01,-1.20e+00,
5.12e-01,-1.20e+00,
5.28e-01,-1.16e+00,
5.12e-01,-1.20e+00,
5.28e-01,-1.16e+00,
5.12e-01,-1.20e+00,
5.28e-01,-1.12e+00,
5.12e-01,-1.16e+00,
5.28e-01,-1.12e+00,
5.12e-01,-1.16e+00,
5.28e-01,-1.12e+00,
5.28e-01,-1.16e+00,
5.12e-01,-1.12e+00,
5.28e-01,-1.16e+00,
5.12e-01,-1.08e+00,
5.12e-01,-1.08e+00,
5.28e-01,-1.12e+00,
5.20e-01,-1.12e+00,
5.28e-01,-1.08e+00,
5.20e-01,-1.08e+00,
5.28e-01,-1.12e+00,
5.28e-01,-1.12e+00,
5.20e-01,-1.04e+00,
5.20e-01,-1.04e+00,
5.28e-01,-1.12e+00,
5.28e-01,-1.04e+00,
5.20e-01,-1.08e+00,
5.20e-01,-1.08e+00,
5.28e-01,-1.04e+00,
5.28e-01,-1.08e+00,
5.20e-01,-1.00e+00,
5.20e-01,-1.08e+00,
5.28e-01,-1.00e+00,
5.20e-01,-1.00e+00,
5.28e-01,-1.04e+00,
5.20e-01,-1.04e+00,
5.28e-01,-1.00e+00,
5.28e-01,-1.00e+00,
5.20e-01,-1.04e+00,
5.28e-01,-9.60e-01,
5.20e-01,-1.04e+00,
5.20e-01,-9.60e-01,
5.28e-01,-1.00e+00,
5.20e-01,-1.00e+00,
5.28e-01,-9.60e-01,
5.20e-01,-9.60e-01,
5.28e-01,-1.00e+00,
5.20e-01,-1.00e+00,
5.28e-01,-9.20e-01,
5.28e-01,-9.20e-01,
5.20e-01,-1.00e+00,
5.20e-01,-9.20e-01,
5.28e-01,-9.60e-01,
5.28e-01,-9.20e-01,
5.12e-01,-9.60e-01,
5.28e-01,-9.60e-01,
5.12e-01,-8.80e-01,
5.12e-01,-9.20e-01,
5.28e-01,-8.80e-01,
5.28e-01,-8.80e-01,
5.12e-01,-9.20e-01,
5.12e-01,-8.80e-01,
5.28e-01,-9.20e-01,
5.28e-01,-8.80e-01,
5.12e-01,-9.20e-01,
5.28e-01,-9.20e-01,
5.12e-01,-8.40e-01,
5.28e-01,-8.40e-01,
5.12e-01,-8.80e-01,
5.28e-01,-8.40e-01,
5.12e-01,-8.80e-01,
5.28e-01,-8.40e-01,
5.12e-01,-8.80e-01,
5.28e-01,-8.40e-01,
5.12e-01,-8.80e-01,
5.28e-01,-8.00e-01,
5.12e-01,-8.80e-01,
5.20e-01,-8.00e-01,
5.28e-01,-7.60e-01,
5.28e-01,-8.00e-01,
5.12e-01,-7.60e-01,
5.28e-01,-8.00e-01,
5.12e-01,-7.60e-01,
5.28e-01,-8.00e-01,
5.20e-01,-7.20e-01,
5.20e-01,-8.00e-01,
5.28e-01,-7.20e-01,
5.28e-01,-7.60e-01,
5.12e-01,-7.20e-01,
5.28e-01,-7.60e-01,
5.12e-01,-7.20e-01,
5.28e-01,-7.60e-01,
5.12e-01,-7.20e-01,
5.20e-01,-7.60e-01,
5.28e-01,-6.80e-01,
5.20e-01,-6.80e-01,
5.28e-01,-7.60e-01,
5.20e-01,-7.20e-01,
5.28e-01,-6.80e-01,
5.20e-01,-7.20e-01,
5.28e-01,-6.80e-01,
5.20e-01,-7.20e-01,
5.28e-01,-6.80e-01,
5.20e-01,-7.20e-01,
5.28e-01,-6.40e-01,
5.20e-01,-6.40e-01,
5.28e-01,-7.20e-01,
5.28e-01,-6.80e-01,
5.20e-01,-6.40e-01,
5.20e-01,-6.40e-01,
5.28e-01,-6.80e-01,
5.20e-01,-6.80e-01,
5.28e-01,-6.40e-01,
5.20e-01,-6.80e-01,
5.28e-01,-6.00e-01,
5.28e-01,-6.80e-01,
5.20e-01,-6.00e-01,
5.20e-01,-6.40e-01,
5.28e-01,-6.00e-01,
5.20e-01,-6.40e-01,
5.28e-01,-6.00e-01,
5.20e-01,-6.00e-01,
5.28e-01,-6.40e-01,
5.20e-01,-6.40e-01,
5.28e-01,-5.60e-01,
5.20e-01,-5.60e-01,
5.28e-01,-6.40e-01,
5.28e-01,-5.60e-01,
5.20e-01,-6.40e-01,
5.20e-01,-5.60e-01,
5.28e-01,-6.00e-01,
5.28e-01,-5.60e-01,
5.20e-01,-6.00e-01,
5.20e-01,-6.00e-01,
5.28e-01,-5.60e-01,
5.20e-01,-5.20e-01,
5.28e-01,-6.00e-01,
5.28e-01,-5.20e-01,
5.20e-01,-6.00e-01,
5.20e-01,-5.20e-01,
5.28e-01,-5.60e-01,
5.20e-01,-5.20e-01,
5.28e-01,-5.60e-01,
5.20e-01,-5.20e-01,
5.28e-01,-5.60e-01,
5.20e-01,-5.60e-01,
5.28e-01,-4.80e-01,
5.20e-01,-5.60e-01,
5.28e-01,-4.80e-01,
5.20e-01,-5.20e-01,
5.28e-01,-4.80e-01,
5.20e-01,-5.20e-01,
5.28e-01,-4.80e-01,
5.28e-01,-5.20e-01,
5.20e-01,-4.80e-01,
5.20e-01,-5.20e-01,
5.28e-01,-4.40e-01,
5.20e-01,-5.20e-01,
5.28e-01,-4.40e-01,
5.20e-01,-4.40e-01,
5.28e-01,-5.20e-01,
5.20e-01,-4.40e-01,
5.28e-01,-4.80e-01,
5.20e-01,-4.80e-01,
5.28e-01,-4.40e-01,
5.20e-01,-4.80e-01,
5.28e-01,-4.40e-01,
5.28e-01,-4.80e-01,
5.20e-01,-4.00e-01,
5.20e-01,-4.00e-01,
5.28e-01,-4.80e-01,
5.20e-01,-4.00e-01,
5.28e-01,-4.80e-01,
5.20e-01,-4.40e-01,
5.28e-01,-4.00e-01,
5.20e-01,-4.00e-01,
5.28e-01,-4.40e-01,
5.20e-01,-4.00e-01,
5.28e-01,-4.40e-01,
5.20e-01,-4.40e-01,
5.28e-01,-3.60e-01,
5.20e-01,-3.60e-01,
5.28e-01,-4.40e-01,
5.20e-01,-4.00e-01,
5.28e-01,-3.60e-01,
5.28e-01,-3.60e-01,
5.20e-01,-4.00e-01,
5.20e-01,-3.60e-01,
5.28e-01,-4.00e-01,
5.20e-01,-3.60e-01,
5.28e-01,-4.00e-01,
5.20e-01,-4.00e-01,
5.28e-01,-3.20e-01,
5.20e-01,-3.20e-01,
5.28e-01,-4.00e-01,
5.20e-01,-3.60e-01,
5.28e-01,-3.20e-01,
5.20e-01,-3.20e-01,
5.28e-01,-3.60e-01,
5.20e-01,-3.20e-01,
5.28e-01,-3.60e-01,
5.20e-01,-3.20e-01,
5.28e-01,-3.60e-01,
5.20e-01,-3.60e-01,
5.28e-01,-2.80e-01,
5.20e-01,-3.60e-01,
5.28e-01,-2.80e-01,
5.20e-01,-2.80e-01,
5.28e-01,-3.20e-01,
5.20e-01,-3.20e-01,
5.28e-01,-2.80e-01,
5.20e-01,-2.80e-01,
5.28e-01,-3.20e-01,
5.28e-01,-2.80e-01,
5.20e-01,-3.20e-01,
5.28e-01,-3.20e-01,
5.20e-01,-2.40e-01,
5.28e-01,-2.40e-01,
5.20e-01,-3.20e-01,
5.20e-01,-2.40e-01,
5.28e-01,-3.20e-01,
5.20e-01,-2.40e-01,
5.28e-01,-2.80e-01,
5.28e-01,-2.40e-01,
5.20e-01,-2.80e-01,
5.28e-01,-2.40e-01,
5.20e-01,-2.80e-01,
5.20e-01,-2.80e-01,
5.28e-01,-2.00e-01,
5.20e-01,-2.80e-01,
5.28e-01,-2.00e-01,
5.28e-01,-2.00e-01,
5.20e-01,-2.80e-01,
5.20e-01,-2.00e-01,
5.28e-01,-1.60e-01,
5.20e-01,-2.00e-01,
5.28e-01,-1.60e-01,
5.20e-01,-2.00e-01,
5.28e-01,-1.60e-01,
5.20e-01,-2.00e-01,
5.28e-01,-2.00e-01,
5.20e-01,-2.00e-01,
5.28e-01,-1.20e-01,
5.20e-01,-2.00e-01,
5.28e-01,-1.20e-01,
5.20e-01,-1.20e-01,
5.28e-01,-2.00e-01,
5.20e-01,-1.60e-01,
5.28e-01,-1.20e-01,
5.20e-01,-1.60e-01,
5.28e-01,-1.20e-01,
5.20e-01,-1.60e-01,
5.28e-01,-1.20e-01,
5.20e-01,-1.60e-01,
5.28e-01,-1.20e-01,
5.20e-01,-1.60e-01,
5.28e-01,-8.00e-02,
5.20e-01,-1.60e-01,
5.28e-01,-8.00e-02,
5.20e-01,-8.00e-02,
5.28e-01,-1.60e-01,
5.28e-01,-1.20e-01,
5.20e-01,-8.00e-02,
5.28e-01,-1.20e-01,
5.20e-01,-8.00e-02,
5.20e-01,-1.20e-01,
5.28e-01,-8.00e-02,
5.28e-01,-1.20e-01,
5.20e-01,-8.00e-02,
5.20e-01,-1.20e-01,
5.28e-01,-4.00e-02,
5.20e-01,-1.20e-01,
5.28e-01,-4.00e-02,
5.20e-01,-4.00e-02,
5.28e-01,-1.20e-01,
5.20e-01,-8.00e-02,
5.28e-01,-4.00e-02,
5.20e-01,-8.00e-02,
5.28e-01,-4.00e-02,
5.20e-01,-8.00e-02,
5.28e-01,-4.00e-02,
5.20e-01,-8.00e-02,
5.28e-01,-4.00e-02,
5.20e-01,-8.00e-02,
5.28e-01,0.00e+00,
5.20e-01,0.00e+00,
5.28e-01,-8.00e-02,
5.20e-01,0.00e+00,
5.28e-01,-8.00e-02,
5.20e-01,-4.00e-02,
5.28e-01,0.00e+00,
5.28e-01,-4.00e-02,
5.20e-01,0.00e+00,
5.20e-01,0.00e+00,
5.28e-01,-4.00e-02,
5.20e-01,-4.00e-02,
5.28e-01,0.00e+00,
5.20e-01,-4.00e-02,
5.28e-01,4.00e-02,
5.20e-01,-4.00e-02,
5.28e-01,4.00e-02,
5.28e-01,4.00e-02,
5.20e-01,-4.00e-02,
5.20e-01,0.00e+00,
5.28e-01,4.00e-02,
5.28e-01,4.00e-02,
5.20e-01,0.00e+00,
5.28e-01,4.00e-02,
5.20e-01,0.00e+00,
5.20e-01,0.00e+00,
5.28e-01,4.00e-02,
5.20e-01,0.00e+00,
5.28e-01,4.00e-02,
5.20e-01,0.00e+00,
5.28e-01,8.00e-02,
5.28e-01,8.00e-02,
5.20e-01,0.00e+00,
5.20e-01,8.00e-02,
5.28e-01,0.00e+00,
5.20e-01,8.00e-02,
5.28e-01,4.00e-02,
5.20e-01,4.00e-02,
5.28e-01,8.00e-02,
5.20e-01,4.00e-02,
5.28e-01,8.00e-02,
5.28e-01,4.00e-02,
5.20e-01,8.00e-02,
5.20e-01,4.00e-02,
5.28e-01,1.20e-01,
5.20e-01,4.00e-02,
5.28e-01,1.20e-01,
5.28e-01,1.20e-01,
5.20e-01,4.00e-02,
5.20e-01,1.20e-01,
5.28e-01,4.00e-02,
5.28e-01,1.20e-01,
5.20e-01,4.00e-02,
5.20e-01,8.00e-02,
5.28e-01,1.20e-01,
5.20e-01,1.20e-01,
5.28e-01,8.00e-02,
5.20e-01,8.00e-02,
5.28e-01,1.20e-01,
5.20e-01,1.20e-01,
5.28e-01,8.00e-02,
5.20e-01,8.00e-02,
5.28e-01,1.60e-01,
5.20e-01,8.00e-02,
5.28e-01,1.60e-01,
5.20e-01,1.60e-01,
5.28e-01,8.00e-02,
5.20e-01,1.60e-01,
5.28e-01,1.20e-01,
5.20e-01,1.60e-01,
5.28e-01,1.20e-01,
5.28e-01,1.60e-01,
5.20e-01,1.20e-01,
5.20e-01,1.60e-01,
5.28e-01,1.20e-01,
5.20e-01,1.20e-01,
5.28e-01,1.60e-01,
5.20e-01,1.20e-01,
5.28e-01,2.00e-01,
5.20e-01,1.20e-01,
5.28e-01,2.00e-01,
5.20e-01,2.00e-01,
5.28e-01,1.20e-01,
5.28e-01,2.00e-01,
5.20e-01,1.20e-01,
5.20e-01,2.00e-01,
5.28e-01,1.60e-01,
5.20e-01,2.00e-01,
5.28e-01,1.60e-01,
5.28e-01,2.00e-01,
5.20e-01,1.60e-01,
5.20e-01,2.00e-01,
5.28e-01,1.60e-01,
5.20e-01,1.60e-01,
5.28e-01,2.40e-01,
5.20e-01,1.60e-01,
5.28e-01,2.40e-01,
5.20e-01,2.40e-01,
5.28e-01,1.60e-01,
5.20e-01,2.40e-01,
5.28e-01,1.60e-01,
5.20e-01,2.00e-01,
5.28e-01,2.40e-01,
5.20e-01,2.40e-01,
5.28e-01,2.00e-01,
5.20e-01,2.40e-01,
5.28e-01,2.00e-01,
5.20e-01,2.40e-01,
5.28e-01,2.00e-01,
5.28e-01,2.00e-01,
5.20e-01,2.40e-01,
5.20e-01,2.00e-01,
5.28e-01,2.40e-01,
5.20e-01,2.00e-01,
5.28e-01,2.80e-01,
5.28e-01,2.80e-01,
5.20e-01,2.00e-01,
5.20e-01,2.00e-01,
5.28e-01,2.80e-01,
5.28e-01,2.80e-01,
5.20e-01,2.40e-01,
5.20e-01,2.80e-01,
5.28e-01,2.40e-01,
5.20e-01,2.40e-01,
5.28e-01,2.80e-01,
5.20e-01,2.80e-01,
5.28e-01,2.40e-01,
5.20e-01,2.80e-01,
5.28e-01,2.40e-01,
5.20e-01,2.80e-01,
5.28e-01,2.40e-01,
5.20e-01,2.40e-01,
5.28e-01,3.20e-01,
5.20e-01,2.40e-01,
5.28e-01,3.20e-01,
5.28e-01,3.20e-01,
5.20e-01,2.40e-01,
5.20e-01,3.20e-01,
5.28e-01,2.40e-01,
5.20e-01,2.80e-01,
5.28e-01,3.20e-01,
5.20e-01,3.20e-01,
5.28e-01,2.80e-01,
5.20e-01,2.80e-01,
5.28e-01,3.20e-01,
5.20e-01,3.20e-01,
5.28e-01,2.80e-01,
5.28e-01,2.80e-01,
5.20e-01,3.20e-01,
5.20e-01,3.20e-01,
5.28e-01,2.80e-01,
5.28e-01,3.60e-01,
5.20e-01,2.80e-01,
5.20e-01,2.80e-01,
5.28e-01,3.60e-01,
5.20e-01,3.60e-01,
5.28e-01,2.80e-01,
5.20e-01,3.60e-01,
5.28e-01,2.80e-01,
5.28e-01,3.60e-01,
5.20e-01,3.20e-01,
5.20e-01,3.60e-01,
5.28e-01,3.20e-01,
5.20e-01,3.60e-01,
5.28e-01,3.20e-01,
5.28e-01,3.60e-01,
5.20e-01,3.20e-01,
5.28e-01,3.60e-01,
5.20e-01,3.20e-01,
5.20e-01,3.60e-01,
5.28e-01,3.20e-01,
5.20e-01,3.60e-01,
5.28e-01,3.20e-01,
5.28e-01,4.00e-01,
5.20e-01,3.20e-01,
5.20e-01,3.60e-01,
5.28e-01,4.00e-01,
5.28e-01,4.00e-01,
5.20e-01,3.20e-01,
5.20e-01,4.00e-01,
5.28e-01,3.20e-01,
5.28e-01,4.00e-01,
5.20e-01,4.00e-01,
5.20e-01,4.00e-01,
5.28e-01,4.00e-01,
5.20e-01,4.00e-01,
5.28e-01,4.00e-01,
5.20e-01,4.00e-01,
5.28e-01,4.00e-01,
5.20e-01,4.00e-01,
5.28e-01,4.00e-01,
5.20e-01,4.00e-01,
5.28e-01,4.40e-01,
5.28e-01,4.00e-01,
5.20e-01,4.40e-01,
5.20e-01,4.00e-01,
5.28e-01,4.80e-01,
5.20e-01,4.00e-01,
5.28e-01,4.80e-01,
5.20e-01,4.00e-01,
5.28e-01,4.80e-01,
5.20e-01,4.00e-01,
5.28e-01,4.80e-01,
5.20e-01,4.80e-01,
5.28e-01,4.00e-01,
5.20e-01,4.40e-01,
5.28e-01,4.80e-01,
5.20e-01,4.40e-01,
5.28e-01,4.80e-01,
5.28e-01,4.40e-01,
5.20e-01,4.80e-01,
5.20e-01,4.40e-01,
5.28e-01,4.80e-01,
5.20e-01,4.40e-01,
5.28e-01,4.80e-01,
5.20e-01,4.40e-01,
5.28e-01,5.20e-01,
5.20e-01,4.40e-01,
5.28e-01,5.20e-01,
5.28e-01,5.20e-01,
5.20e-01,4.40e-01,
5.20e-01,4.40e-01,
5.28e-01,5.20e-01,
5.20e-01,4.40e-01,
5.28e-01,5.20e-01,
5.20e-01,5.20e-01,
5.28e-01,4.40e-01,
5.28e-01,4.40e-01,
5.20e-01,5.20e-01,
5.20e-01,4.80e-01,
5.28e-01,5.20e-01,
5.20e-01,4.80e-01,
5.28e-01,5.20e-01,
5.20e-01,4.80e-01,
5.28e-01,5.20e-01,
5.20e-01,4.80e-01,
5.28e-01,5.20e-01,
5.20e-01,4.80e-01,
5.28e-01,5.20e-01,
5.28e-01,4.80e-01,
5.20e-01,5.60e-01,
5.20e-01,5.20e-01,
5.28e-01,4.80e-01,
5.20e-01,4.80e-01,
5.28e-01,5.60e-01,
5.20e-01,4.80e-01,
5.28e-01,5.60e-01,
5.20e-01,4.80e-01,
5.28e-01,5.60e-01,
5.20e-01,5.60e-01,
5.28e-01,4.80e-01,
5.20e-01,5.20e-01,
5.28e-01,5.60e-01,
5.20e-01,5.20e-01,
5.28e-01,5.60e-01,
5.20e-01,5.20e-01,
5.28e-01,5.60e-01,
5.20e-01,5.20e-01,
5.28e-01,5.60e-01,
5.20e-01,5.20e-01,
5.28e-01,5.60e-01,
5.20e-01,5.20e-01,
5.28e-01,5.60e-01,
5.20e-01,5.20e-01,
5.28e-01,5.60e-01,
5.20e-01,5.20e-01,
5.28e-01,6.00e-01,
5.20e-01,5.20e-01,
5.28e-01,6.00e-01,
5.20e-01,5.20e-01,
5.28e-01,6.00e-01,
5.20e-01,6.00e-01,
5.28e-01,5.20e-01,
5.20e-01,6.00e-01,
5.28e-01,5.20e-01,
5.20e-01,6.00e-01,
5.28e-01,5.60e-01,
5.20e-01,6.00e-01,
5.28e-01,5.60e-01,
5.20e-01,6.00e-01,
5.28e-01,5.60e-01,
5.20e-01,5.60e-01,
5.28e-01,6.00e-01,
5.20e-01,5.60e-01,
5.28e-01,6.00e-01,
5.20e-01,5.60e-01,
5.28e-01,6.00e-01,
5.20e-01,5.60e-01,
5.28e-01,6.00e-01,
5.20e-01,6.00e-01,
5.28e-01,5.60e-01,
5.20e-01,6.00e-01,
5.28e-01,5.60e-01,
5.20e-01,5.60e-01,
5.28e-01,6.40e-01,
5.20e-01,6.40e-01,
5.28e-01,5.60e-01,
5.20e-01,6.40e-01,
5.28e-01,5.60e-01,
5.28e-01,6.40e-01,
5.20e-01,5.60e-01,
5.20e-01,6.40e-01,
5.28e-01,5.60e-01,
5.20e-01,6.00e-01,
5.28e-01,6.40e-01,
5.20e-01,6.40e-01,
5.28e-01,5.60e-01,
5.20e-01,6.40e-01,
5.28e-01,6.00e-01,
5.20e-01,6.00e-01,
5.28e-01,6.40e-01,
5.20e-01,6.00e-01,
5.28e-01,6.40e-01,
5.20e-01,6.40e-01,
5.28e-01,6.00e-01,
5.20e-01,6.40e-01,
5.28e-01,6.00e-01,
5.20e-01,6.00e-01,
5.28e-01,6.80e-01,
5.20e-01,6.00e-01,
5.28e-01,6.80e-01,
5.20e-01,6.00e-01,
5.28e-01,6.80e-01,
5.20e-01,6.80e-01,
5.28e-01,6.00e-01,
5.20e-01,6.00e-01,
5.28e-01,6.80e-01,
5.20e-01,6.80e-01,
5.28e-01,6.00e-01,
5.20e-01,6.80e-01,
5.28e-01,6.00e-01,
5.20e-01,6.40e-01,
5.28e-01,6.80e-01,
5.20e-01,6.40e-01,
5.28e-01,6.80e-01,
5.28e-01,6.40e-01,
5.20e-01,6.80e-01,
5.20e-01,6.40e-01,
5.28e-01,6.80e-01,
5.20e-01,6.80e-01,
5.28e-01,6.40e-01,
5.20e-01,6.80e-01,
5.28e-01,6.40e-01,
5.20e-01,6.80e-01,
5.28e-01,6.40e-01,
5.28e-01,6.40e-01,
5.20e-01,6.80e-01,
5.20e-01,6.40e-01,
5.28e-01,7.20e-01,
5.20e-01,6.40e-01,
5.28e-01,7.20e-01,
5.28e-01,6.40e-01,
5.20e-01,7.20e-01,
5.20e-01,7.20e-01,
5.28e-01,6.40e-01,
5.20e-01,7.20e-01,
5.28e-01,6.40e-01,
5.20e-01,7.20e-01,
5.28e-01,6.40e-01,
5.20e-01,6.80e-01,
5.28e-01,7.20e-01,
5.20e-01,6.80e-01,
5.28e-01,7.20e-01,
5.20e-01,6.80e-01,
5.28e-01,7.20e-01,
5.28e-01,6.80e-01,
5.20e-01,7.20e-01,
5.20e-01,6.80e-01,
5.28e-01,7.20e-01,
5.28e-01,6.80e-01,
5.20e-01,7.20e-01,
5.28e-01,6.80e-01,
5.20e-01,7.20e-01,
5.20e-01,6.80e-01,
5.28e-01,7.20e-01,
5.20e-01,7.20e-01,
5.28e-01,6.80e-01,
5.20e-01,7.20e-01,
5.28e-01,6.80e-01,
5.20e-01,6.80e-01,
5.28e-01,7.60e-01,
5.28e-01,7.60e-01,
5.20e-01,6.80e-01,
5.20e-01,6.80e-01,
5.28e-01,7.60e-01,
5.20e-01,7.60e-01,
5.28e-01,6.80e-01,
5.20e-01,7.60e-01,
5.28e-01,6.80e-01,
5.20e-01,7.60e-01,
5.28e-01,6.80e-01,
5.20e-01,6.80e-01,
5.28e-01,7.60e-01,
5.20e-01,7.60e-01,
5.28e-01,7.20e-01,
5.20e-01,7.20e-01,
5.28e-01,7.60e-01,
5.28e-01,7.20e-01,
5.20e-01,7.60e-01,
5.20e-01,7.60e-01,
5.28e-01,7.20e-01,
5.20e-01,7.20e-01,
5.28e-01,7.60e-01,
5.20e-01,7.20e-01,
5.28e-01,7.60e-01,
5.20e-01,7.60e-01,
5.28e-01,7.20e-01,
5.20e-01,7.60e-01,
5.28e-01,7.20e-01,
5.20e-01,7.20e-01,
5.28e-01,8.00e-01,
5.20e-01,7.20e-01,
5.28e-01,8.00e-01,
5.28e-01,7.20e-01,
5.20e-01,8.00e-01,
5.20e-01,7.20e-01,
5.28e-01,8.00e-01,
5.28e-01,7.20e-01,
5.20e-01,8.00e-01,
5.20e-01,8.00e-01,
5.28e-01,7.20e-01,
5.20e-01,8.00e-01,
5.28e-01,7.20e-01,
5.20e-01,7.60e-01,
5.28e-01,8.00e-01,
5.28e-01,8.00e-01,
5.20e-01,7.60e-01,
5.28e-01,8.00e-01,
5.20e-01,7.60e-01,
5.20e-01,8.00e-01,
5.28e-01,7.60e-01,
5.20e-01,8.00e-01,
5.28e-01,7.60e-01,
5.20e-01,8.00e-01,
5.28e-01,7.60e-01,
5.20e-01,7.60e-01,
5.28e-01,8.00e-01,
5.28e-01,8.00e-01,
5.20e-01,7.60e-01,
5.20e-01,8.00e-01,
5.28e-01,7.60e-01,
5.20e-01,8.00e-01,
5.28e-01,7.60e-01,
5.20e-01,8.00e-01,
5.28e-01,7.60e-01,
5.20e-01,8.00e-01,
5.28e-01,7.60e-01,
5.20e-01,7.60e-01,
5.28e-01,8.40e-01,
5.20e-01,7.60e-01,
5.28e-01,8.40e-01,
5.20e-01,7.60e-01,
5.28e-01,8.40e-01,
5.28e-01,7.60e-01,
5.20e-01,8.40e-01,
5.20e-01,8.40e-01,
5.28e-01,7.60e-01,
5.20e-01,8.40e-01,
5.28e-01,7.60e-01,
5.20e-01,8.40e-01,
5.28e-01,8.00e-01,
5.28e-01,8.40e-01,
5.20e-01,7.60e-01,
5.28e-01,8.40e-01,
5.20e-01,8.00e-01,
5.20e-01,8.40e-01,
5.28e-01,8.00e-01,
5.20e-01,8.40e-01,
5.28e-01,8.00e-01,
5.20e-01,8.00e-01,
5.28e-01,8.40e-01,
5.20e-01,8.40e-01,
5.28e-01,8.00e-01,
5.28e-01,8.40e-01,
5.20e-01,8.00e-01,
5.20e-01,8.00e-01,
5.28e-01,8.40e-01,
5.20e-01,8.40e-01,
5.28e-01,8.00e-01,
5.20e-01,8.40e-01,
5.28e-01,8.00e-01,
5.20e-01,8.40e-01,
5.28e-01,8.00e-01,
5.20e-01,8.40e-01,
5.28e-01,8.00e-01,
5.20e-01,8.00e-01,
5.28e-01,8.80e-01,
5.28e-01,8.00e-01,
5.20e-01,8.80e-01,
5.28e-01,8.80e-01,
5.20e-01,8.00e-01,
5.20e-01,8.00e-01,
5.28e-01,8.80e-01,
5.20e-01,8.80e-01,
5.28e-01,8.00e-01,
5.28e-01,8.80e-01,
5.20e-01,8.00e-01,
5.20e-01,8.80e-01,
5.28e-01,8.00e-01,
5.20e-01,8.80e-01,
5.28e-01,8.00e-01,
5.20e-01,8.80e-01,
5.28e-01,8.40e-01,
5.28e-01,8.80e-01,
5.20e-01,8.40e-01,
5.20e-01,8.80e-01,
5.28e-01,8.40e-01,
5.20e-01,8.80e-01,
5.28e-01,8.40e-01,
5.20e-01,8.80e-01,
5.28e-01,8.40e-01,
5.20e-01,8.40e-01,
5.28e-01,8.80e-01,
5.20e-01,8.40e-01,
5.28e-01,8.80e-01,
5.28e-01,8.80e-01,
5.20e-01,8.40e-01,
5.20e-01,8.40e-01,
5.28e-01,8.80e-01,
5.28e-01,8.80e-01,
5.20e-01,8.40e-01,
5.20e-01,8.40e-01,
5.28e-01,8.80e-01,
5.20e-01,8.40e-01,
5.28e-01,8.80e-01,
5.20e-01,8.40e-01,
5.28e-01,8.80e-01,
5.20e-01,8.80e-01,
5.28e-01,8.40e-01,
5.20e-01,8.80e-01,
5.28e-01,8.40e-01,
5.20e-01,8.40e-01,
5.28e-01,9.20e-01,
5.28e-01,9.20e-01,
5.20e-01,8.40e-01,
5.20e-01,8.40e-01,
5.28e-01,9.20e-01,
5.20e-01,9.20e-01,
5.28e-01,8.40e-01,
5.28e-01,8.40e-01,
5.20e-01,9.20e-01,
5.20e-01,9.20e-01,
5.28e-01,8.40e-01,
5.28e-01,9.20e-01,
5.20e-01,8.40e-01,
5.28e-01,9.20e-01,
5.20e-01,8.40e-01,
5.20e-01,9.20e-01,
5.28e-01,8.80e-01,
5.20e-01,9.20e-01,
5.28e-01,8.80e-01,
5.20e-01,9.20e-01,
5.28e-01,8.80e-01,
5.28e-01,9.20e-01,
5.20e-01,8.80e-01,
5.20e-01,9.20e-01,
5.28e-01,8.80e-01,
5.28e-01,8.80e-01,
5.20e-01,9.20e-01,
5.20e-01,9.20e-01,
5.28e-01,8.80e-01,
5.20e-01,8.80e-01,
5.28e-01,9.20e-01,
5.20e-01,9.20e-01,
5.28e-01,8.80e-01,
5.20e-01,9.20e-01,
5.28e-01,8.80e-01,
5.20e-01,8.80e-01,
5.28e-01,9.20e-01,
5.20e-01,9.20e-01,
5.28e-01,8.80e-01,
5.20e-01,9.20e-01,
5.28e-01,8.80e-01,
5.28e-01,8.80e-01,
5.20e-01,9.60e-01,
5.20e-01,8.80e-01,
5.28e-01,9.60e-01,
5.20e-01,9.60e-01,
5.28e-01,8.80e-01,
5.20e-01,8.80e-01,
5.28e-01,9.60e-01,
5.20e-01,9.60e-01,
5.28e-01,8.80e-01,
5.20e-01,8.80e-01,
5.28e-01,9.60e-01,
5.20e-01,9.60e-01,
5.28e-01,8.80e-01,
5.20e-01,9.60e-01,
5.28e-01,8.80e-01,
5.20e-01,9.60e-01,
5.28e-01,8.80e-01,
5.20e-01,9.60e-01,
