Lab2/CSV/csv/NewFile5.csv

CH1,CH2,Start,Increment,
Volt,Volt,-8.00000e-04,5.00000e-06
-5.28e-01,-2.88e-01,
-4.96e-01,-3.00e-01,
-5.28e-01,-3.00e-01,
-4.96e-01,-2.84e-01,
-4.96e-01,-2.88e-01,
-5.28e-01,-2.96e-01,
-5.28e-01,-2.88e-01,
-4.96e-01,-3.00e-01,
-5.20e-01,-2.96e-01,
-4.96e-01,-2.88e-01,
-4.96e-01,-2.88e-01,
-5.28e-01,-2.96e-01,
-5.20e-01,-2.84e-01,
-4.96e-01,-3.00e-01,
-4.96e-01,-2.88e-01,
-5.28e-01,-3.00e-01,
-4.96e-01,-2.88e-01,
-5.28e-01,-3.00e-01,
-4.96e-01,-3.00e-01,
-5.20e-01,-2.84e-01,
-4.96e-01,-2.88e-01,
-5.20e-01,-3.00e-01,
-4.96e-01,-2.88e-01,
-5.28e-01,-3.00e-01,
-4.96e-01,-2.88e-01,
-5.28e-01,-2.96e-01,
-4.96e-01,-2.88e-01,
-5.20e-01,-3.00e-01,
-5.20e-01,-2.88e-01,
-4.96e-01,-3.00e-01,
-4.96e-01,-2.88e-01,
-5.28e-01,-3.00e-01,
-5.20e-01,-2.88e-01,
-4.96e-01,-3.00e-01,
-5.28e-01,-2.88e-01,
-4.96e-01,-3.00e-01,
-5.20e-01,-2.88e-01,
-4.96e-01,-3.00e-01,
-5.20e-01,-2.88e-01,
-4.96e-01,-2.96e-01,
-4.96e-01,-2.88e-01,
-5.20e-01,-2.96e-01,
-5.28e-01,-2.88e-01,
-4.96e-01,-2.96e-01,
-4.96e-01,-2.88e-01,
-5.28e-01,-3.00e-01,
-5.20e-01,-2.88e-01,
-4.96e-01,-3.00e-01,
-4.96e-01,-2.88e-01,
-5.20e-01,-3.00e-01,
-4.96e-01,-2.88e-01,
-5.20e-01,-3.00e-01,
-5.20e-01,-2.88e-01,
-4.96e-01,-2.96e-01,
-4.96e-01,-2.88e-01,
-5.20e-01,-2.96e-01,
-4.96e-01,-2.88e-01,
-5.20e-01,-2.96e-01,
-5.20e-01,-2.88e-01,
-4.96e-01,-2.96e-01,
-4.96e-01,-2.88e-01,
-5.28e-01,-3.00e-01,
-4.96e-01,-2.88e-01,
-5.20e-01,-3.00e-01,
-4.96e-01,-2.88e-01,
-5.28e-01,-3.00e-01,
-4.96e-01,-2.88e-01,
-5.20e-01,-2.96e-01,
-4.96e-01,-2.88e-01,
-5.20e-01,-2.96e-01,
-5.20e-01,-2.88e-01,
-4.96e-01,-3.00e-01,
-5.20e-01,-2.88e-01,
-4.96e-01,-3.00e-01,
-5.20e-01,-3.00e-01,
-4.96e-01,-2.84e-01,
-5.28e-01,-2.96e-01,
-4.96e-01,-2.88e-01,
-4.96e-01,-2.88e-01,
-5.20e-01,-3.00e-01,
-5.20e-01,-2.96e-01,
-4.96e-01,-2.88e-01,
-4.96e-01,-2.88e-01,
-5.28e-01,-2.96e-01,
-4.96e-01,-2.88e-01,
-5.20e-01,-3.00e-01,
-4.96e-01,-2.88e-01,
-5.20e-01,-3.00e-01,
-4.96e-01,-2.96e-01,
-5.20e-01,-2.84e-01,
-5.20e-01,-2.96e-01,
-4.96e-01,-2.88e-01,
-5.20e-01,-2.88e-01,
-4.96e-01,-3.00e-01,
-4.96e-01,-2.96e-01,
-5.20e-01,-2.88e-01,
-5.20e-01,-2.88e-01,
-4.96e-01,-2.96e-01,
-5.20e-01,-2.84e-01,
-4.96e-01,-3.00e-01,
-4.96e-01,-2.84e-01,
-5.20e-01,-3.00e-01,
-5.20e-01,-2.88e-01,
-4.96e-01,-3.00e-01,
-4.96e-01,-2.84e-01,
-5.20e-01,-3.00e-01,
-5.20e-01,-2.84e-01,
-4.96e-01,-3.00e-01,
-5.28e-01,-2.88e-01,
-4.96e-01,-2.96e-01,
-4.96e-01,-2.88e-01,
-5.20e-01,-3.00e-01,
-5.20e-01,-2.88e-01,
-4.96e-01,-3.00e-01,
-4.96e-01,-2.88e-01,
-5.20e-01,-3.00e-01,
-5.20e-01,-2.88e-01,
-4.96e-01,-3.00e-01,
-5.20e-01,-2.84e-01,
-4.96e-01,-3.00e-01,
-4.96e-01,-2.96e-01,
-5.28e-01,-2.88e-01,
-4.96e-01,-2.88e-01,
-5.20e-01,-3.00e-01,
-4.96e-01,-2.88e-01,
-5.28e-01,-2.96e-01,
-4.96e-01,-2.96e-01,
-5.20e-01,-2.88e-01,
-5.20e-01,-2.88e-01,
-4.96e-01,-3.00e-01,
-4.96e-01,-2.88e-01,
-5.28e-01,-2.96e-01,
-5.12e-01,-2.88e-01,
-4.96e-01,-3.00e-01,
-4.96e-01,-2.96e-01,
-5.20e-01,-2.84e-01,
-5.20e-01,-2.88e-01,
-4.96e-01,-3.00e-01,
-4.96e-01,-2.88e-01,
-5.20e-01,-2.96e-01,
-4.96e-01,-2.88e-01,
-5.20e-01,-2.96e-01,
-4.96e-01,-2.88e-01,
-5.20e-01,-3.00e-01,
-4.96e-01,-2.84e-01,
-5.20e-01,-3.00e-01,
-4.96e-01,-2.88e-01,
-5.20e-01,-3.00e-01,
-4.96e-01,-2.88e-01,
-5.20e-01,-3.00e-01,
-5.20e-01,-2.88e-01,
-4.96e-01,-3.00e-01,
-4.96e-01,-2.96e-01,
-5.20e-01,-2.84e-01,
-4.96e-01,-2.88e-01,
-5.20e-01,-3.00e-01,
-4.96e-01,-2.88e-01,
-5.20e-01,-3.00e-01,
-5.20e-01,-2.88e-01,
-4.96e-01,-3.00e-01,
6.24e-01,-2.84e-01,
4.80e-01,-2.96e-01,
5.28e-01,-2.92e-01,
5.12e-01,-2.76e-01,
5.28e-01,-2.80e-01,
5.12e-01,-2.64e-01,
5.12e-01,-2.72e-01,
5.28e-01,-2.56e-01,
5.12e-01,-2.64e-01,
5.28e-01,-2.44e-01,
5.12e-01,-2.52e-01,
5.28e-01,-2.36e-01,
5.12e-01,-2.44e-01,
5.28e-01,-2.24e-01,
5.12e-01,-2.32e-01,
5.28e-01,-2.12e-01,
5.12e-01,-2.24e-01,
5.28e-01,-2.04e-01,
5.12e-01,-2.12e-01,
5.28e-01,-1.96e-01,
5.12e-01,-2.04e-01,
5.28e-01,-1.84e-01,
5.12e-01,-1.96e-01,
5.28e-01,-1.76e-01,
5.12e-01,-1.84e-01,
5.28e-01,-1.68e-01,
5.12e-01,-1.76e-01,
5.28e-01,-1.60e-01,
5.28e-01,-1.68e-01,
5.12e-01,-1.52e-01,
5.28e-01,-1.60e-01,
5.12e-01,-1.44e-01,
5.12e-01,-1.52e-01,
5.28e-01,-1.32e-01,
5.12e-01,-1.40e-01,
5.28e-01,-1.28e-01,
5.12e-01,-1.36e-01,
5.28e-01,-1.20e-01,
5.12e-01,-1.28e-01,
5.28e-01,-1.12e-01,
5.12e-01,-1.20e-01,
5.28e-01,-1.04e-01,
5.12e-01,-1.12e-01,
5.28e-01,-9.60e-02,
5.12e-01,-1.04e-01,
5.28e-01,-8.80e-02,
5.12e-01,-9.60e-02,
5.28e-01,-8.00e-02,
5.12e-01,-8.80e-02,
5.28e-01,-7.20e-02,
5.12e-01,-8.00e-02,
5.28e-01,-6.80e-02,
5.12e-01,-7.60e-02,
5.28e-01,-6.00e-02,
5.12e-01,-6.80e-02,
5.28e-01,-5.60e-02,
5.12e-01,-6.40e-02,
5.20e-01,-4.80e-02,
5.12e-01,-5.60e-02,
5.28e-01,-4.00e-02,
5.12e-01,-4.80e-02,
5.28e-01,-3.20e-02,
5.12e-01,-4.00e-02,
5.28e-01,-2.80e-02,
5.12e-01,-3.60e-02,
5.28e-01,-2.00e-02,
5.12e-01,-2.80e-02,
5.28e-01,-1.60e-02,
5.12e-01,-2.40e-02,
5.28e-01,-1.20e-02,
5.12e-01,-2.00e-02,
5.28e-01,-4.00e-03,
5.12e-01,-1.20e-02,
5.28e-01,4.00e-03,
5.12e-01,-8.00e-03,
5.28e-01,8.00e-03,
5.12e-01,0.00e+00,
5.28e-01,1.20e-02,
5.12e-01,4.00e-03,
5.28e-01,2.00e-02,
5.12e-01,1.20e-02,
5.28e-01,2.40e-02,
5.12e-01,1.60e-02,
5.20e-01,2.80e-02,
5.12e-01,2.00e-02,
5.28e-01,3.20e-02,
5.12e-01,2.40e-02,
5.28e-01,3.60e-02,
5.12e-01,3.20e-02,
5.28e-01,4.40e-02,
5.28e-01,3.60e-02,
5.12e-01,4.80e-02,
5.12e-01,4.40e-02,
5.28e-01,5.60e-02,
5.12e-01,4.80e-02,
5.28e-01,6.00e-02,
5.12e-01,5.20e-02,
5.28e-01,6.40e-02,
5.12e-01,5.60e-02,
5.28e-01,6.80e-02,
5.12e-01,6.00e-02,
5.28e-01,7.20e-02,
5.12e-01,6.40e-02,
5.28e-01,7.60e-02,
5.12e-01,6.80e-02,
5.28e-01,8.00e-02,
5.28e-01,7.20e-02,
5.12e-01,8.40e-02,
5.12e-01,7.60e-02,
5.28e-01,8.80e-02,
5.12e-01,8.00e-02,
5.28e-01,9.60e-02,
5.28e-01,8.40e-02,
5.12e-01,1.00e-01,
5.12e-01,9.20e-02,
5.28e-01,1.00e-01,
5.28e-01,1.04e-01,
5.12e-01,9.20e-02,
5.12e-01,9.60e-02,
5.28e-01,1.08e-01,
5.12e-01,1.00e-01,
5.28e-01,1.12e-01,
5.28e-01,1.04e-01,
5.12e-01,1.16e-01,
5.12e-01,1.08e-01,
5.28e-01,1.20e-01,
5.12e-01,1.12e-01,
5.28e-01,1.24e-01,
5.12e-01,1.16e-01,
5.28e-01,1.24e-01,
5.12e-01,1.16e-01,
5.28e-01,1.28e-01,
5.12e-01,1.20e-01,
5.28e-01,1.32e-01,
5.12e-01,1.24e-01,
5.28e-01,1.36e-01,
5.28e-01,1.36e-01,
5.12e-01,1.28e-01,
5.28e-01,1.28e-01,
5.12e-01,1.44e-01,
5.12e-01,1.36e-01,
5.28e-01,1.48e-01,
5.12e-01,1.40e-01,
5.28e-01,1.52e-01,
5.28e-01,1.40e-01,
5.12e-01,1.52e-01,
5.28e-01,1.44e-01,
5.12e-01,1.56e-01,
5.12e-01,1.48e-01,
5.28e-01,1.56e-01,
5.28e-01,1.52e-01,
5.12e-01,1.60e-01,
5.28e-01,1.52e-01,
5.12e-01,1.64e-01,
5.28e-01,1.56e-01,
5.12e-01,1.64e-01,
5.12e-01,1.56e-01,
5.28e-01,1.68e-01,
5.28e-01,1.60e-01,
5.12e-01,1.72e-01,
5.12e-01,1.64e-01,
5.28e-01,1.72e-01,
5.12e-01,1.64e-01,
5.28e-01,1.76e-01,
5.28e-01,1.76e-01,
5.12e-01,1.68e-01,
5.12e-01,1.80e-01,
5.36e-01,1.68e-01,
5.12e-01,1.72e-01,
5.36e-01,1.84e-01,
5.28e-01,1.72e-01,
5.12e-01,1.84e-01,
5.12e-01,1.76e-01,
5.36e-01,1.92e-01,
5.12e-01,1.76e-01,
5.36e-01,1.92e-01,
5.28e-01,1.84e-01,
5.12e-01,1.96e-01,
5.12e-01,1.84e-01,
5.28e-01,1.96e-01,
5.12e-01,1.88e-01,
5.28e-01,2.00e-01,
5.12e-01,1.88e-01,
5.28e-01,2.00e-01,
5.12e-01,1.92e-01,
5.28e-01,2.04e-01,
5.12e-01,2.04e-01,
5.28e-01,1.92e-01,
5.12e-01,1.96e-01,
5.36e-01,2.08e-01,
5.12e-01,1.96e-01,
5.36e-01,2.08e-01,
5.28e-01,2.08e-01,
5.12e-01,2.00e-01,
5.12e-01,2.00e-01,
5.36e-01,2.12e-01,
5.28e-01,2.12e-01,
5.12e-01,2.00e-01,
5.28e-01,2.04e-01,
5.12e-01,2.16e-01,
5.12e-01,2.16e-01,
5.36e-01,2.04e-01,
5.12e-01,2.08e-01,
5.36e-01,2.20e-01,
5.36e-01,2.08e-01,
5.12e-01,2.20e-01,
5.36e-01,2.20e-01,
5.12e-01,2.08e-01,
5.12e-01,2.12e-01,
5.36e-01,2.24e-01,
5.36e-01,2.24e-01,
5.12e-01,2.12e-01,
5.12e-01,2.16e-01,
5.36e-01,2.28e-01,
5.12e-01,2.16e-01,
5.36e-01,2.28e-01,
5.36e-01,2.28e-01,
5.12e-01,2.20e-01,
5.12e-01,2.20e-01,
5.36e-01,2.32e-01,
5.36e-01,2.20e-01,
5.12e-01,2.36e-01,
5.36e-01,2.36e-01,
5.12e-01,2.24e-01,
5.12e-01,2.24e-01,
5.36e-01,2.36e-01,
5.12e-01,2.40e-01,
5.36e-01,2.24e-01,
5.20e-01,2.40e-01,
5.36e-01,2.28e-01,
5.12e-01,2.32e-01,
5.36e-01,2.44e-01,
5.20e-01,2.32e-01,
5.36e-01,2.44e-01,
5.12e-01,2.44e-01,
5.36e-01,2.32e-01,
5.36e-01,2.36e-01,
5.12e-01,2.48e-01,
5.12e-01,2.36e-01,
5.36e-01,2.48e-01,
5.20e-01,2.36e-01,
5.36e-01,2.48e-01,
5.36e-01,2.40e-01,
5.12e-01,2.48e-01,
5.20e-01,2.40e-01,
5.36e-01,2.52e-01,
5.12e-01,2.40e-01,
5.36e-01,2.52e-01,
5.20e-01,2.52e-01,
5.36e-01,2.40e-01,
5.36e-01,2.44e-01,
5.12e-01,2.56e-01,
5.36e-01,2.44e-01,
5.12e-01,2.56e-01,
5.36e-01,2.44e-01,
5.12e-01,2.56e-01,
5.36e-01,2.56e-01,
5.12e-01,2.44e-01,
5.20e-01,2.56e-01,
5.36e-01,2.48e-01,
5.20e-01,2.48e-01,
5.36e-01,2.60e-01,
5.20e-01,2.60e-01,
5.36e-01,2.48e-01,
5.36e-01,2.60e-01,
5.12e-01,2.48e-01,
5.36e-01,2.52e-01,
5.12e-01,2.64e-01,
5.36e-01,2.52e-01,
5.12e-01,2.64e-01,
5.20e-01,2.52e-01,
5.36e-01,2.64e-01,
5.20e-01,2.64e-01,
5.36e-01,2.52e-01,
5.20e-01,2.52e-01,
5.36e-01,2.68e-01,
5.20e-01,2.56e-01,
5.36e-01,2.68e-01,
5.20e-01,2.56e-01,
5.36e-01,2.68e-01,
5.36e-01,2.68e-01,
5.12e-01,2.56e-01,
5.36e-01,2.68e-01,
5.20e-01,2.56e-01,
5.20e-01,2.60e-01,
5.36e-01,2.72e-01,
5.20e-01,2.60e-01,
5.36e-01,2.72e-01,
5.12e-01,2.60e-01,
5.36e-01,2.72e-01,
5.20e-01,2.72e-01,
5.36e-01,2.60e-01,
5.20e-01,2.72e-01,
5.36e-01,2.60e-01,
5.20e-01,2.64e-01,
5.36e-01,2.72e-01,
5.20e-01,2.76e-01,
5.36e-01,2.60e-01,
5.20e-01,2.76e-01,
5.36e-01,2.64e-01,
5.20e-01,2.64e-01,
5.36e-01,2.76e-01,
5.20e-01,2.76e-01,
5.36e-01,2.64e-01,
5.20e-01,2.76e-01,
5.36e-01,2.64e-01,
5.20e-01,2.64e-01,
5.36e-01,2.80e-01,
5.20e-01,2.68e-01,
5.36e-01,2.84e-01,
5.20e-01,2.68e-01,
5.36e-01,2.84e-01,
5.20e-01,2.68e-01,
5.36e-01,2.84e-01,
5.20e-01,2.68e-01,
5.36e-01,2.84e-01,
5.20e-01,2.68e-01,
5.36e-01,2.84e-01,
5.20e-01,2.72e-01,
5.36e-01,2.84e-01,
5.20e-01,2.72e-01,
5.36e-01,2.88e-01,
5.20e-01,2.72e-01,
5.36e-01,2.88e-01,
5.20e-01,2.88e-01,
5.36e-01,2.72e-01,
5.20e-01,2.72e-01,
5.36e-01,2.88e-01,
5.20e-01,2.88e-01,
5.36e-01,2.72e-01,
5.20e-01,2.76e-01,
5.36e-01,2.88e-01,
5.36e-01,2.88e-01,
5.20e-01,2.72e-01,
5.36e-01,2.88e-01,
5.20e-01,2.76e-01,
5.20e-01,2.80e-01,
5.36e-01,2.92e-01,
5.20e-01,2.80e-01,
5.36e-01,2.92e-01,
5.36e-01,2.80e-01,
5.20e-01,2.92e-01,
5.20e-01,2.80e-01,
5.36e-01,2.92e-01,
5.20e-01,2.92e-01,
5.36e-01,2.80e-01,
5.20e-01,2.92e-01,
5.36e-01,2.80e-01,
5.20e-01,2.80e-01,
5.36e-01,2.92e-01,
5.20e-01,2.92e-01,
5.36e-01,2.80e-01,
5.20e-01,2.84e-01,
5.36e-01,2.96e-01,
5.20e-01,2.84e-01,
5.36e-01,2.96e-01,
5.36e-01,2.84e-01,
5.20e-01,2.96e-01,
5.36e-01,2.84e-01,
5.20e-01,2.96e-01,
5.20e-01,2.84e-01,
5.36e-01,2.96e-01,
5.20e-01,2.84e-01,
5.36e-01,2.96e-01,
5.36e-01,2.96e-01,
5.20e-01,2.84e-01,
5.36e-01,2.96e-01,
5.20e-01,2.84e-01,
5.36e-01,2.96e-01,
5.20e-01,2.84e-01,
5.36e-01,2.84e-01,
5.20e-01,3.00e-01,
5.36e-01,2.88e-01,
5.20e-01,3.00e-01,
5.20e-01,2.84e-01,
5.36e-01,3.00e-01,
5.36e-01,2.88e-01,
5.20e-01,3.00e-01,
5.36e-01,2.88e-01,
5.20e-01,3.00e-01,
5.36e-01,2.88e-01,
5.20e-01,3.00e-01,
5.36e-01,3.00e-01,
5.20e-01,2.88e-01,
5.36e-01,3.00e-01,
5.20e-01,2.88e-01,
5.20e-01,2.88e-01,
5.36e-01,3.00e-01,
5.20e-01,3.00e-01,
5.36e-01,2.88e-01,
5.20e-01,3.00e-01,
5.36e-01,2.88e-01,
5.20e-01,2.88e-01,
5.36e-01,3.04e-01,
5.36e-01,2.92e-01,
5.20e-01,3.00e-01,
5.36e-01,2.92e-01,
5.20e-01,3.04e-01,
5.20e-01,2.92e-01,
5.36e-01,3.04e-01,
5.36e-01,2.92e-01,
5.20e-01,3.04e-01,
5.36e-01,2.92e-01,
5.20e-01,3.04e-01,
5.36e-01,2.92e-01,
5.20e-01,3.04e-01,
5.36e-01,2.92e-01,
5.20e-01,3.04e-01,
5.28e-01,3.04e-01,
5.36e-01,2.92e-01,
5.36e-01,2.92e-01,
5.28e-01,3.04e-01,
5.36e-01,3.04e-01,
5.20e-01,2.92e-01,
5.28e-01,3.04e-01,
5.36e-01,2.92e-01,
5.36e-01,3.04e-01,
5.20e-01,2.92e-01,
5.36e-01,3.04e-01,
5.20e-01,2.92e-01,
5.20e-01,2.92e-01,
5.36e-01,3.08e-01,
5.20e-01,2.92e-01,
5.36e-01,3.08e-01,
5.20e-01,2.92e-01,
5.36e-01,3.08e-01,
5.36e-01,2.96e-01,
5.20e-01,3.08e-01,
5.20e-01,2.96e-01,
5.36e-01,3.08e-01,
5.20e-01,2.96e-01,
5.36e-01,3.08e-01,
5.20e-01,2.96e-01,
5.36e-01,3.08e-01,
5.36e-01,2.96e-01,
5.20e-01,3.08e-01,
5.20e-01,2.96e-01,
5.36e-01,3.08e-01,
5.20e-01,3.08e-01,
5.36e-01,2.96e-01,
5.20e-01,2.96e-01,
5.36e-01,3.08e-01,
5.28e-01,3.08e-01,
5.36e-01,2.96e-01,
5.28e-01,2.96e-01,
5.36e-01,3.08e-01,
5.36e-01,2.96e-01,
5.28e-01,3.08e-01,
5.28e-01,2.96e-01,
5.36e-01,3.08e-01,
5.36e-01,3.08e-01,
5.28e-01,2.96e-01,
5.28e-01,3.08e-01,
5.36e-01,2.96e-01,
5.36e-01,2.96e-01,
5.20e-01,3.12e-01,
5.28e-01,2.96e-01,
5.36e-01,3.12e-01,
5.36e-01,2.96e-01,
5.20e-01,3.12e-01,
5.36e-01,2.96e-01,
5.20e-01,3.12e-01,
5.20e-01,2.96e-01,
5.36e-01,3.12e-01,
5.20e-01,2.96e-01,
5.36e-01,3.12e-01,
5.20e-01,3.00e-01,
5.36e-01,3.12e-01,
5.20e-01,3.00e-01,
5.36e-01,3.12e-01,
5.20e-01,3.00e-01,
5.36e-01,3.12e-01,
5.36e-01,3.00e-01,
5.20e-01,3.12e-01,
5.36e-01,3.00e-01,
5.20e-01,3.12e-01,
5.36e-01,3.00e-01,
5.20e-01,3.12e-01,
5.36e-01,3.12e-01,
5.20e-01,3.00e-01,
5.20e-01,3.00e-01,
5.36e-01,3.12e-01,
5.36e-01,3.00e-01,
5.20e-01,3.12e-01,
5.28e-01,3.12e-01,
5.36e-01,3.00e-01,
5.28e-01,3.00e-01,
5.36e-01,3.12e-01,
5.36e-01,3.12e-01,
5.20e-01,3.00e-01,
5.36e-01,3.00e-01,
5.28e-01,3.12e-01,
5.28e-01,3.12e-01,
5.36e-01,3.00e-01,
5.36e-01,3.12e-01,
5.28e-01,3.00e-01,
5.28e-01,3.12e-01,
5.36e-01,3.00e-01,
5.36e-01,3.12e-01,
5.20e-01,3.00e-01,
5.20e-01,3.12e-01,
5.36e-01,3.00e-01,
5.36e-01,3.12e-01,
5.20e-01,3.00e-01,
5.20e-01,3.12e-01,
5.36e-01,3.00e-01,
5.20e-01,3.12e-01,
5.36e-01,3.00e-01,
5.20e-01,3.12e-01,
5.36e-01,3.00e-01,
5.20e-01,3.04e-01,
5.36e-01,3.16e-01,
5.36e-01,3.16e-01,
5.20e-01,3.00e-01,
5.20e-01,3.16e-01,
5.36e-01,3.00e-01,
5.20e-01,3.04e-01,
5.36e-01,3.16e-01,
5.20e-01,3.04e-01,
5.36e-01,3.16e-01,
5.36e-01,3.16e-01,
5.20e-01,3.00e-01,
5.36e-01,3.04e-01,
5.20e-01,3.16e-01,
5.36e-01,3.04e-01,
5.28e-01,3.16e-01,
5.28e-01,3.04e-01,
5.36e-01,3.16e-01,
5.36e-01,3.04e-01,
5.20e-01,3.16e-01,
5.28e-01,3.04e-01,
5.36e-01,3.16e-01,
5.36e-01,3.04e-01,
5.28e-01,3.16e-01,
5.36e-01,3.04e-01,
5.20e-01,3.16e-01,
5.28e-01,3.16e-01,
5.36e-01,3.04e-01,
5.36e-01,3.04e-01,
5.20e-01,3.16e-01,
5.20e-01,3.04e-01,
5.36e-01,3.16e-01,
5.36e-01,3.04e-01,
5.20e-01,3.16e-01,
5.36e-01,3.04e-01,
5.20e-01,3.16e-01,
5.20e-01,3.16e-01,
5.36e-01,3.04e-01,
5.20e-01,3.16e-01,
5.36e-01,3.04e-01,
5.36e-01,3.04e-01,
5.20e-01,3.16e-01,
5.36e-01,3.16e-01,
5.20e-01,3.04e-01,
5.36e-01,3.04e-01,
5.20e-01,3.16e-01,
5.20e-01,3.16e-01,
5.36e-01,3.04e-01,
5.20e-01,3.16e-01,
5.36e-01,3.04e-01,
5.20e-01,3.04e-01,
5.36e-01,3.16e-01,
5.28e-01,3.16e-01,
5.36e-01,3.04e-01,
5.28e-01,3.16e-01,
5.36e-01,3.04e-01,
5.28e-01,3.16e-01,
5.36e-01,3.04e-01,
5.28e-01,3.16e-01,
5.36e-01,3.04e-01,
5.28e-01,3.16e-01,
5.36e-01,3.04e-01,
5.36e-01,3.16e-01,
5.20e-01,3.04e-01,
5.36e-01,3.16e-01,
5.20e-01,3.04e-01,
5.36e-01,3.16e-01,
5.28e-01,3.04e-01,
5.36e-01,3.16e-01,
5.20e-01,3.04e-01,
5.36e-01,3.16e-01,
5.20e-01,3.04e-01,
5.36e-01,3.04e-01,
5.20e-01,3.16e-01,
5.20e-01,3.04e-01,
5.36e-01,3.16e-01,
5.20e-01,3.16e-01,
5.36e-01,3.04e-01,
5.36e-01,3.16e-01,
5.20e-01,3.04e-01,
5.20e-01,3.16e-01,
5.36e-01,3.04e-01,
5.20e-01,3.16e-01,
5.36e-01,3.04e-01,
5.20e-01,3.16e-01,
5.36e-01,3.04e-01,
5.20e-01,3.04e-01,
5.36e-01,3.20e-01,
5.20e-01,3.04e-01,
5.36e-01,3.20e-01,
5.20e-01,3.20e-01,
5.36e-01,3.04e-01,
5.28e-01,3.16e-01,
5.36e-01,3.04e-01,
5.28e-01,3.04e-01,
5.36e-01,3.20e-01,
5.36e-01,3.16e-01,
5.20e-01,3.04e-01,
5.36e-01,3.08e-01,
5.20e-01,3.20e-01,
5.36e-01,3.08e-01,
5.20e-01,3.20e-01,
5.36e-01,3.20e-01,
5.20e-01,3.04e-01,
5.36e-01,3.04e-01,
5.20e-01,3.20e-01,
5.36e-01,3.16e-01,
5.20e-01,3.04e-01,
5.36e-01,3.20e-01,
5.20e-01,3.04e-01,
5.20e-01,3.20e-01,
5.36e-01,3.08e-01,
5.20e-01,3.20e-01,
5.36e-01,3.04e-01,
5.20e-01,3.08e-01,
5.36e-01,3.20e-01,
5.20e-01,3.08e-01,
5.36e-01,3.20e-01,
5.20e-01,3.08e-01,
5.36e-01,3.20e-01,
5.36e-01,3.08e-01,
5.20e-01,3.20e-01,
5.36e-01,3.08e-01,
5.20e-01,3.20e-01,
5.20e-01,3.08e-01,
5.36e-01,3.20e-01,
5.36e-01,3.08e-01,
5.20e-01,3.20e-01,
5.20e-01,3.08e-01,
5.36e-01,3.20e-01,
5.36e-01,3.08e-01,
5.20e-01,3.20e-01,
5.36e-01,3.08e-01,
5.20e-01,3.20e-01,
5.28e-01,3.08e-01,
5.36e-01,3.20e-01,
5.36e-01,3.08e-01,
5.28e-01,3.20e-01,
5.20e-01,3.08e-01,
5.36e-01,3.20e-01,
5.36e-01,3.20e-01,
5.20e-01,3.08e-01,
5.36e-01,3.08e-01,
5.20e-01,3.20e-01,
5.36e-01,3.08e-01,
5.20e-01,3.20e-01,
5.36e-01,3.08e-01,
5.20e-01,3.20e-01,
5.36e-01,3.20e-01,
5.20e-01,3.08e-01,
5.20e-01,3.08e-01,
5.36e-01,3.20e-01,
5.20e-01,3.20e-01,
5.36e-01,3.08e-01,
5.20e-01,3.08e-01,
5.36e-01,3.20e-01,
5.20e-01,3.08e-01,
5.36e-01,3.20e-01,
5.20e-01,3.08e-01,
5.36e-01,3.20e-01,
5.20e-01,3.08e-01,
5.36e-01,3.20e-01,
5.20e-01,3.08e-01,
5.36e-01,3.20e-01,
5.20e-01,3.20e-01,
5.36e-01,3.08e-01,
5.36e-01,3.08e-01,
5.20e-01,3.20e-01,
5.36e-01,3.08e-01,
5.20e-01,3.20e-01,
5.20e-01,3.08e-01,
5.36e-01,3.20e-01,
5.36e-01,3.08e-01,
5.20e-01,3.20e-01,
5.20e-01,3.08e-01,
5.36e-01,3.20e-01,
5.36e-01,3.20e-01,
5.20e-01,3.08e-01,
5.36e-01,3.20e-01,
5.20e-01,3.08e-01,
5.20e-01,3.20e-01,
5.36e-01,3.08e-01,
5.20e-01,3.20e-01,
5.36e-01,3.08e-01,
5.36e-01,3.08e-01,
5.20e-01,3.20e-01,
5.36e-01,3.08e-01,
5.20e-01,3.20e-01,
5.20e-01,3.08e-01,
5.36e-01,3.20e-01,
5.20e-01,3.20e-01,
5.36e-01,3.08e-01,
5.20e-01,3.20e-01,
5.36e-01,3.08e-01,
5.20e-01,3.20e-01,
5.36e-01,3.08e-01,
5.20e-01,3.20e-01,
5.36e-01,3.08e-01,
5.20e-01,3.20e-01,
5.36e-01,3.08e-01,
5.20e-01,3.20e-01,
5.36e-01,3.08e-01,
5.36e-01,3.20e-01,
5.20e-01,3.08e-01,
5.20e-01,3.08e-01,
5.36e-01,3.20e-01,
5.20e-01,3.20e-01,
5.36e-01,3.08e-01,
5.20e-01,3.20e-01,
5.36e-01,3.08e-01,
5.20e-01,3.20e-01,
5.36e-01,3.08e-01,
5.20e-01,3.20e-01,
5.36e-01,3.08e-01,
5.20e-01,3.08e-01,
5.36e-01,3.20e-01,
5.36e-01,3.20e-01,
5.20e-01,3.08e-01,
5.20e-01,3.20e-01,
5.36e-01,3.08e-01,
5.36e-01,3.20e-01,
5.20e-01,3.08e-01,
5.20e-01,3.20e-01,
5.36e-01,3.08e-01,
5.36e-01,3.20e-01,
5.20e-01,3.08e-01,
5.20e-01,3.20e-01,
5.36e-01,3.08e-01,
5.20e-01,3.20e-01,
5.36e-01,3.08e-01,
5.20e-01,3.20e-01,
5.36e-01,3.08e-01,
5.20e-01,3.20e-01,
5.36e-01,3.08e-01,
5.20e-01,3.20e-01,
5.36e-01,3.08e-01,
5.20e-01,3.20e-01,
5.36e-01,3.08e-01,
5.20e-01,3.20e-01,
5.36e-01,3.08e-01,
5.20e-01,3.20e-01,
5.36e-01,3.08e-01,
5.20e-01,3.20e-01,
5.36e-01,3.08e-01,
5.20e-01,3.20e-01,
5.36e-01,3.08e-01,
5.20e-01,3.20e-01,
5.36e-01,3.08e-01,
5.20e-01,3.20e-01,
5.36e-01,3.08e-01,
5.20e-01,3.20e-01,
5.36e-01,3.08e-01,
5.20e-01,3.20e-01,
5.36e-01,3.08e-01,
5.12e-01,3.20e-01,
5.36e-01,3.08e-01,
5.36e-01,3.20e-01,
5.20e-01,3.08e-01,
5.36e-01,3.20e-01,
5.20e-01,3.08e-01,
5.20e-01,3.20e-01,
5.36e-01,3.12e-01,
5.20e-01,3.20e-01,
5.36e-01,3.08e-01,
5.20e-01,3.20e-01,
5.36e-01,3.08e-01,
5.36e-01,3.20e-01,
5.12e-01,3.08e-01,
5.36e-01,3.20e-01,
5.12e-01,3.08e-01,
5.20e-01,3.20e-01,
5.36e-01,3.08e-01,
5.36e-01,3.20e-01,
5.12e-01,3.08e-01,
5.20e-01,3.20e-01,
5.36e-01,3.08e-01,
5.20e-01,3.20e-01,
5.36e-01,3.08e-01,
5.20e-01,3.20e-01,
5.36e-01,3.08e-01,
5.36e-01,3.20e-01,
5.12e-01,3.08e-01,
5.36e-01,3.20e-01,
5.12e-01,3.08e-01,
5.36e-01,3.20e-01,
5.12e-01,3.08e-01,
5.20e-01,3.20e-01,
5.36e-01,3.08e-01,
5.20e-01,3.20e-01,
5.36e-01,3.08e-01,
5.20e-01,3.20e-01,
5.36e-01,3.08e-01,
5.20e-01,3.20e-01,
5.36e-01,3.08e-01,
5.20e-01,3.20e-01,
5.36e-01,3.08e-01,
5.20e-01,3.20e-01,
5.36e-01,3.08e-01,
5.20e-01,3.20e-01,
5.36e-01,3.08e-01,
5.20e-01,3.20e-01,
5.36e-01,3.08e-01,
5.20e-01,3.20e-01,
5.36e-01,3.08e-01,
5.20e-01,3.20e-01,
5.36e-01,3.08e-01,
5.20e-01,3.20e-01,
5.36e-01,3.08e-01,
5.36e-01,3.20e-01,
5.20e-01,3.08e-01,
5.20e-01,3.20e-01,
5.36e-01,3.08e-01,
5.20e-01,3.20e-01,
5.36e-01,3.08e-01,
5.36e-01,3.20e-01,
5.12e-01,3.08e-01,
5.36e-01,3.20e-01,
5.12e-01,3.08e-01,
5.20e-01,3.20e-01,
5.36e-01,3.08e-01,
5.20e-01,3.20e-01,
5.36e-01,3.08e-01,
5.20e-01,3.08e-01,
5.36e-01,3.24e-01,
5.20e-01,3.08e-01,
5.36e-01,3.24e-01,
5.36e-01,3.20e-01,
5.12e-01,3.08e-01,
5.20e-01,3.20e-01,
5.36e-01,3.08e-01,
5.20e-01,3.20e-01,
5.36e-01,3.08e-01,
5.36e-01,3.12e-01,
5.12e-01,3.24e-01,
5.20e-01,3.20e-01,
5.36e-01,3.08e-01,
5.20e-01,3.20e-01,
5.36e-01,3.08e-01,
5.20e-01,3.20e-01,
5.36e-01,3.08e-01,
5.20e-01,3.24e-01,
5.36e-01,3.08e-01,
5.20e-01,3.20e-01,
5.36e-01,3.08e-01,
5.36e-01,3.20e-01,
5.12e-01,3.12e-01,
5.20e-01,3.20e-01,
5.36e-01,3.08e-01,
5.20e-01,3.20e-01,
5.36e-01,3.08e-01,
5.20e-01,3.20e-01,
5.36e-01,3.08e-01,
5.12e-01,3.20e-01,
5.36e-01,3.08e-01,
5.12e-01,3.20e-01,
5.36e-01,3.08e-01,
5.20e-01,3.08e-01,
5.36e-01,3.24e-01,
